com/pb/bugzbunny/services/BugService.class
com/pb/bugzbunny/context/SpringWebContext.class
com/pb/bugzbunny/entity/BugEntity.class
com/pb/bugzbunny/dto/Bug.class
com/pb/bugzbunny/dao/jdbc/AbstractDao.class
com/pb/bugzbunny/controllers/WebController.class
com/pb/bugzbunny/context/WebBootstrap.class
com/pb/bugzbunny/dao/jdbc/BugRowMapper.class
com/pb/bugzbunny/dao/jdbc/IDao.class
com/pb/bugzbunny/services/BugSourceService.class
com/pb/bugzbunny/dto/ScanResult.class
com/pb/bugzbunny/dao/jdbc/BugsDaoHiber.class
com/pb/bugzbunny/dto/MyResponse.class
com/pb/bugzbunny/controllers/BugController.class
com/pb/bugzbunny/dao/elastic/ElasticClient.class
com/pb/bugzbunny/services/MyHttpClient.class
com/pb/bugzbunny/dao/jdbc/BugsDao.class
com/pb/bugzbunny/dto/elastic/ElasticSearchResult.class
com/pb/bugzbunny/beans/Analyzer.class
com/pb/bugzbunny/services/ElasticErrorSourceService.class
