/home/andrew/javastud/logsanalyzer/BugsBunny/src/main/java/com/pb/bugzbunny/services/MyHttpClient.java
/home/andrew/javastud/logsanalyzer/BugsBunny/src/main/java/com/pb/bugzbunny/dao/jdbc/IDao.java
/home/andrew/javastud/logsanalyzer/BugsBunny/src/main/java/com/pb/bugzbunny/entity/BugEntity.java
/home/andrew/javastud/logsanalyzer/BugsBunny/src/main/java/com/pb/bugzbunny/dao/jdbc/BugRowMapper.java
/home/andrew/javastud/logsanalyzer/BugsBunny/src/main/java/com/pb/bugzbunny/dao/jdbc/AbstractDao.java
/home/andrew/javastud/logsanalyzer/BugsBunny/src/main/java/com/pb/bugzbunny/dao/jdbc/BugsDao.java
/home/andrew/javastud/logsanalyzer/BugsBunny/src/main/java/com/pb/bugzbunny/services/BugService.java
/home/andrew/javastud/logsanalyzer/BugsBunny/src/main/java/com/pb/bugzbunny/context/SpringWebContext.java
/home/andrew/javastud/logsanalyzer/BugsBunny/src/main/java/com/pb/bugzbunny/beans/Analyzer.java
/home/andrew/javastud/logsanalyzer/BugsBunny/src/main/java/com/pb/bugzbunny/services/ElasticErrorSourceService.java
/home/andrew/javastud/logsanalyzer/BugsBunny/src/main/java/com/pb/bugzbunny/dto/Bug.java
/home/andrew/javastud/logsanalyzer/BugsBunny/src/main/java/com/pb/bugzbunny/dao/jdbc/BugsDaoHiber.java
/home/andrew/javastud/logsanalyzer/BugsBunny/src/main/java/com/pb/bugzbunny/controllers/BugController.java
/home/andrew/javastud/logsanalyzer/BugsBunny/src/main/java/com/pb/bugzbunny/controllers/WebController.java
/home/andrew/javastud/logsanalyzer/BugsBunny/src/main/java/com/pb/bugzbunny/dto/elastic/ElasticSearchResult.java
/home/andrew/javastud/logsanalyzer/BugsBunny/src/main/java/com/pb/bugzbunny/dao/elastic/ElasticClient.java
/home/andrew/javastud/logsanalyzer/BugsBunny/src/main/java/com/pb/bugzbunny/context/WebBootstrap.java
/home/andrew/javastud/logsanalyzer/BugsBunny/src/main/java/com/pb/bugzbunny/dto/ScanResult.java
/home/andrew/javastud/logsanalyzer/BugsBunny/src/main/java/com/pb/bugzbunny/services/BugSourceService.java
/home/andrew/javastud/logsanalyzer/BugsBunny/src/main/java/com/pb/bugzbunny/dto/MyResponse.java
